<svg xmlns="http://www.w3.org/2000/svg" xmlns:xlink="http://www.w3.org/1999/xlink" width="14.878" height="22.345" viewBox="0 0 14.878 22.345">
  <defs>
    <clipPath id="clip-path">
      <rect id="Rectangle_17675" data-name="Rectangle 17675" width="14.878" height="22.345" transform="translate(0 0)" fill="none"/>
    </clipPath>
  </defs>
  <g id="Group_708" data-name="Group 708" transform="translate(0 0)">
    <g id="Group_707" data-name="Group 707" clip-path="url(#clip-path)">
      <path id="Path_621" data-name="Path 621" d="M14.41,13.011h.222c0-2.555.007-5.109-.011-7.664a1.478,1.478,0,0,0-.239-.761c-.5-.757-1.034-1.5-1.58-2.224a1.481,1.481,0,0,1-.307-.973c.016-.9-.261-1.164-1.145-1.142C8.7.312,6.044.375,3.391.453A5.519,5.519,0,0,0,2.308.612C2.019.68,1.77.869,1.83,1.2A2.1,2.1,0,0,1,.984,3.231a2.527,2.527,0,0,0-.469.523,1.374,1.374,0,0,0-.258.656q-.023,7.18,0,14.361a.9.9,0,0,0,.262.595q1.428,1.308,2.9,2.562a.821.821,0,0,0,.546.169c3.315-.278,6.628-.576,9.943-.857.355-.03.51-.124.508-.521-.017-2.569-.009-5.139-.009-7.708" fill="#fff"/>
      <path id="Path_622" data-name="Path 622" d="M14.41,13.011h.222c0-2.555.007-5.109-.011-7.664a1.478,1.478,0,0,0-.239-.761c-.5-.757-1.034-1.5-1.58-2.224a1.481,1.481,0,0,1-.307-.973c.016-.9-.261-1.164-1.145-1.142C8.7.312,6.044.375,3.391.453A5.519,5.519,0,0,0,2.308.612C2.019.68,1.77.869,1.83,1.2A2.1,2.1,0,0,1,.984,3.231a2.527,2.527,0,0,0-.469.523,1.374,1.374,0,0,0-.258.656q-.023,7.18,0,14.361a.9.9,0,0,0,.262.595q1.428,1.308,2.9,2.562a.821.821,0,0,0,.546.169c3.315-.278,6.628-.576,9.943-.857.355-.03.51-.124.508-.521C14.4,18.15,14.41,15.58,14.41,13.011Z" fill="none" stroke="#000" stroke-width="0.491"/>
      <path id="Path_623" data-name="Path 623" d="M14.41,13.011c0,2.569-.008,5.139.009,7.708,0,.4-.153.491-.508.521-3.315.281-6.628.579-9.943.857a.819.819,0,0,1-.546-.169Q1.951,20.67.519,19.366a.9.9,0,0,1-.262-.595q-.023-7.18,0-14.361a1.377,1.377,0,0,1,.258-.657,2.522,2.522,0,0,1,.469-.522A2.1,2.1,0,0,0,1.83,1.2c-.06-.332.189-.522.478-.589A5.521,5.521,0,0,1,3.391.452C6.044.375,8.7.312,11.35.247c.884-.022,1.161.241,1.145,1.141a1.479,1.479,0,0,0,.307.973c.546.728,1.077,1.467,1.58,2.224a1.485,1.485,0,0,1,.239.762c.017,2.554.011,5.109.011,7.664H14.41M3.845,21.827c.112,0,.2.006.283,0,3.227-.284,6.454-.573,9.682-.847.311-.026.338-.177.342-.427.023-1.924.057-3.847.087-5.771,0-.157,0-.313,0-.491-.229,0-.4-.011-.573,0-3.144.231-6.287.469-9.432.69-.327.023-.414.136-.413.453.007,2.012-.006,4.024-.011,6.036,0,.113.021.226.034.357M3.869,10.1l10.459-.547V5.115L3.869,5.672Zm10.389-.284L3.865,10.36v4.4l10.393-.775Zm0-4.958c-.62-.872-1.189-1.653-1.735-2.449a.649.649,0,0,0-.65-.319c-3.076.141-6.153.262-9.23.391-.123,0-.245.029-.443.054.483.878.943,1.691,1.376,2.519a.563.563,0,0,0,.62.344c1.991-.114,3.983-.2,5.974-.309,1.331-.069,2.661-.15,4.088-.231M.5,13.429C.5,14.914.565,16.3.479,17.67a2.2,2.2,0,0,0,1,2.226,12.565,12.565,0,0,1,1.3,1.122c.227.2.457.4.717.62a1.064,1.064,0,0,0,.061-.219c.007-2.069.014-4.139.009-6.209a.417.417,0,0,0-.159-.319c-.932-.484-1.874-.949-2.9-1.462M2.086,2.219c.207,0,.339,0,.47,0Q5.346,2.109,8.136,2c1.23-.051,2.461-.1,3.69-.164.14-.008.358-.062.4-.157a.783.783,0,0,0-.78-1.157Q7.4.611,3.356.718a3.137,3.137,0,0,0-.867.115.642.642,0,0,0-.385.388,5.449,5.449,0,0,0-.018,1M.5,4.3c0,1.47-.008,2.849.014,4.227,0,.12.175.288.308.347.614.276,1.241.524,1.865.778.277.112.557.216.893.346,0-1.431,0-2.781-.008-4.13A.4.4,0,0,0,3.4,5.565C2.465,5.146,1.524,4.746.5,4.3M.557,9.068a.813.813,0,0,0-.05.167c0,1.219-.013,2.437.006,3.655a.549.549,0,0,0,.272.378c.817.429,1.647.834,2.475,1.241a1.826,1.826,0,0,0,.314.085c0-1.086,0-2.127,0-3.168,0-1.128.005-1.129-1.026-1.551-.659-.27-1.32-.536-1.991-.807M3.264,5.211l.06-.086c-.239-.434-.469-.873-.723-1.3-.053-.089-.212-.195-.292-.174-.481.123-.954.281-1.429.427l0,.1L3.264,5.211M1.915,2.589.812,3.815l1.522-.466-.419-.76"/>
      <path id="Path_624" data-name="Path 624" d="M14.41,13.011c0,2.569-.008,5.139.009,7.708,0,.4-.153.491-.508.521-3.315.281-6.628.579-9.943.857a.819.819,0,0,1-.546-.169Q1.951,20.67.519,19.366a.9.9,0,0,1-.262-.595q-.023-7.18,0-14.361a1.377,1.377,0,0,1,.258-.657,2.522,2.522,0,0,1,.469-.522A2.1,2.1,0,0,0,1.83,1.2c-.06-.332.189-.522.478-.589A5.521,5.521,0,0,1,3.391.452C6.044.375,8.7.312,11.35.247c.884-.022,1.161.241,1.145,1.141a1.479,1.479,0,0,0,.307.973c.546.728,1.077,1.467,1.58,2.224a1.485,1.485,0,0,1,.239.762c.017,2.554.011,5.109.011,7.664ZM3.845,21.827c.112,0,.2.006.283,0,3.227-.284,6.454-.573,9.682-.847.311-.026.338-.177.342-.427.023-1.924.057-3.847.087-5.771,0-.157,0-.313,0-.491-.229,0-.4-.011-.573,0-3.144.231-6.287.469-9.432.69-.327.023-.414.136-.413.453.007,2.012-.006,4.024-.011,6.036C3.811,21.583,3.832,21.7,3.845,21.827ZM3.869,10.1l10.459-.547V5.115L3.869,5.672Zm10.389-.284L3.865,10.36v4.4l10.393-.775Zm0-4.958c-.62-.872-1.189-1.653-1.735-2.449a.649.649,0,0,0-.65-.319c-3.076.141-6.153.262-9.23.391-.123,0-.245.029-.443.054.483.878.943,1.691,1.376,2.519a.563.563,0,0,0,.62.344c1.991-.114,3.983-.2,5.974-.309C11.5,5.015,12.83,4.934,14.257,4.853ZM.5,13.429C.5,14.914.565,16.3.479,17.67a2.2,2.2,0,0,0,1,2.226,12.565,12.565,0,0,1,1.3,1.122c.227.2.457.4.717.62a1.064,1.064,0,0,0,.061-.219c.007-2.069.014-4.139.009-6.209a.417.417,0,0,0-.159-.319C2.469,14.407,1.527,13.942.5,13.429ZM2.086,2.219c.207,0,.339,0,.47,0Q5.346,2.109,8.136,2c1.23-.051,2.461-.1,3.69-.164.14-.008.358-.062.4-.157a.783.783,0,0,0-.78-1.157Q7.4.611,3.356.718a3.137,3.137,0,0,0-.867.115.642.642,0,0,0-.385.388A5.449,5.449,0,0,0,2.086,2.219ZM.5,4.3c0,1.47-.008,2.849.014,4.227,0,.12.175.288.308.347.614.276,1.241.524,1.865.778.277.112.557.216.893.346,0-1.431,0-2.781-.008-4.13A.4.4,0,0,0,3.4,5.565C2.465,5.146,1.524,4.746.5,4.3ZM.557,9.068a.813.813,0,0,0-.05.167c0,1.219-.013,2.437.006,3.655a.549.549,0,0,0,.272.378c.817.429,1.647.834,2.475,1.241a1.826,1.826,0,0,0,.314.085c0-1.086,0-2.127,0-3.168,0-1.128.005-1.129-1.026-1.551C1.889,9.6,1.228,9.339.557,9.068ZM3.264,5.211l.06-.086c-.239-.434-.469-.873-.723-1.3-.053-.089-.212-.195-.292-.174-.481.123-.954.281-1.429.427l0,.1ZM1.915,2.589.812,3.815l1.522-.466Z" fill="none" stroke="#000" stroke-width="0.491"/>
      <path id="Path_625" data-name="Path 625" d="M3.845,21.827c-.013-.131-.034-.244-.034-.357,0-2.012.018-4.024.011-6.036,0-.317.085-.43.413-.453,3.144-.221,6.288-.459,9.431-.689.172-.013.345,0,.573,0,0,.178,0,.335,0,.491-.03,1.924-.064,3.847-.088,5.771,0,.25-.03.4-.342.428-3.228.273-6.454.562-9.681.846-.085.008-.171,0-.283,0" fill="#fff"/>
      <path id="Path_626" data-name="Path 626" d="M3.845,21.827c-.013-.131-.034-.244-.034-.357,0-2.012.018-4.024.011-6.036,0-.317.085-.43.413-.453,3.144-.221,6.288-.459,9.431-.689.172-.013.345,0,.573,0,0,.178,0,.335,0,.491-.03,1.924-.064,3.847-.088,5.771,0,.25-.03.4-.342.428-3.228.273-6.454.562-9.681.846C4.043,21.834,3.957,21.827,3.845,21.827Z" fill="none" stroke="#000" stroke-width="0.491"/>
      <path id="Path_627" data-name="Path 627" d="M3.869,10.1V5.673l10.46-.557V9.548L3.869,10.1" fill="#fff"/>
      <path id="Path_628" data-name="Path 628" d="M3.869,10.1V5.673l10.46-.557V9.548Z" fill="none" stroke="#000" stroke-width="0.491"/>
      <path id="Path_629" data-name="Path 629" d="M14.257,4.853c-1.426.081-2.757.162-4.088.232-1.991.1-3.983.194-5.974.309a.565.565,0,0,1-.62-.345C3.142,4.222,2.682,3.409,2.2,2.53c.2-.025.32-.048.443-.053,3.077-.129,6.154-.251,9.23-.392a.653.653,0,0,1,.651.319c.545.8,1.114,1.577,1.734,2.449" fill="#fff"/>
      <path id="Path_630" data-name="Path 630" d="M14.257,4.853c-1.426.081-2.757.162-4.088.232-1.991.1-3.983.194-5.974.309a.565.565,0,0,1-.62-.345C3.142,4.222,2.682,3.409,2.2,2.53c.2-.025.32-.048.443-.053,3.077-.129,6.154-.251,9.23-.392a.653.653,0,0,1,.651.319C13.068,3.2,13.637,3.981,14.257,4.853Z" fill="none" stroke="#000" stroke-width="0.491"/>
      <path id="Path_631" data-name="Path 631" d="M.5,13.429c1.027.514,1.969.978,2.9,1.462a.421.421,0,0,1,.159.32c0,2.069,0,4.139-.01,6.209a1.055,1.055,0,0,1-.06.218c-.26-.225-.49-.421-.718-.62a12.555,12.555,0,0,0-1.3-1.122,2.2,2.2,0,0,1-1-2.225C.564,16.3.5,14.915.5,13.429" fill="#fff"/>
      <path id="Path_632" data-name="Path 632" d="M.5,13.429c1.027.514,1.969.978,2.9,1.462a.421.421,0,0,1,.159.32c0,2.069,0,4.139-.01,6.209a1.055,1.055,0,0,1-.06.218c-.26-.225-.49-.421-.718-.62a12.555,12.555,0,0,0-1.3-1.122,2.2,2.2,0,0,1-1-2.225C.564,16.3.5,14.915.5,13.429Z" fill="none" stroke="#000" stroke-width="0.491"/>
      <path id="Path_633" data-name="Path 633" d="M2.086,2.219a5.45,5.45,0,0,1,.018-1A.639.639,0,0,1,2.488.834,3.112,3.112,0,0,1,3.356.718Q7.4.61,11.445.517a.784.784,0,0,1,.781,1.157c-.043.1-.26.15-.4.157-1.23.063-2.46.114-3.69.164q-2.79.114-5.581.223c-.131.006-.262,0-.469,0" fill="#fff"/>
      <path id="Path_634" data-name="Path 634" d="M2.086,2.219a5.45,5.45,0,0,1,.018-1A.639.639,0,0,1,2.488.834,3.112,3.112,0,0,1,3.356.718Q7.4.61,11.445.517a.784.784,0,0,1,.781,1.157c-.043.1-.26.15-.4.157-1.23.063-2.46.114-3.69.164q-2.79.114-5.581.223C2.424,2.224,2.293,2.219,2.086,2.219Z" fill="none" stroke="#000" stroke-width="0.491"/>
      <path id="Path_635" data-name="Path 635" d="M.5,4.3c1.023.442,1.964.842,2.9,1.262a.4.4,0,0,1,.175.306c.012,1.35.008,2.7.008,4.13-.336-.13-.616-.233-.893-.346-.624-.254-1.251-.5-1.865-.777C.69,8.819.517,8.652.515,8.532.493,7.153.5,5.775.5,4.3" fill="#fff"/>
      <path id="Path_636" data-name="Path 636" d="M.5,4.3c1.023.442,1.964.842,2.9,1.262a.4.4,0,0,1,.175.306c.012,1.35.008,2.7.008,4.13-.336-.13-.616-.233-.893-.346-.624-.254-1.251-.5-1.865-.777C.69,8.819.517,8.652.515,8.532.493,7.153.5,5.775.5,4.3Z" fill="none" stroke="#000" stroke-width="0.491"/>
      <path id="Path_637" data-name="Path 637" d="M.557,9.068c.671.272,1.332.538,1.991.808,1.031.421,1.029.422,1.026,1.55,0,1.041,0,2.082,0,3.168a1.907,1.907,0,0,1-.314-.084C2.432,14.1,1.6,13.7.785,13.269a.549.549,0,0,1-.272-.379C.494,11.672.5,10.454.506,9.236a.893.893,0,0,1,.051-.168" fill="#fff"/>
      <path id="Path_638" data-name="Path 638" d="M.557,9.068c.671.272,1.332.538,1.991.808,1.031.421,1.029.422,1.026,1.55,0,1.041,0,2.082,0,3.168a1.907,1.907,0,0,1-.314-.084C2.432,14.1,1.6,13.7.785,13.269a.549.549,0,0,1-.272-.379C.494,11.672.5,10.454.506,9.236A.893.893,0,0,1,.557,9.068Z" fill="none" stroke="#000" stroke-width="0.491"/>
      <path id="Path_639" data-name="Path 639" d="M3.264,5.211.883,4.178l0-.1c.476-.146.948-.3,1.429-.427.08-.02.239.085.292.174.254.425.484.864.723,1.3l-.06.085" fill="#fff"/>
      <path id="Path_640" data-name="Path 640" d="M3.264,5.211.883,4.178l0-.1c.476-.146.948-.3,1.429-.427.08-.02.239.085.292.174.254.425.484.864.723,1.3Z" fill="none" stroke="#000" stroke-width="0.491"/>
      <path id="Path_641" data-name="Path 641" d="M1.915,2.589l.419.76L.812,3.815l1.1-1.226" fill="#fff"/>
      <path id="Path_642" data-name="Path 642" d="M1.915,2.589l.419.76L.812,3.815Z" fill="none" stroke="#000" stroke-width="0.491"/>
    </g>
  </g>
</svg>
