<svg xmlns="http://www.w3.org/2000/svg" width="22.633" height="30" viewBox="0 0 22.633 30">
  <g id="mqliss.tif" transform="translate(-778.092 -915.763)">
    <g id="Group_20" data-name="Group 20" transform="translate(778.092 915.763)">
      <path id="Path_99" data-name="Path 99" d="M789.4,936.931c-.293.7-.557,1.338-.82,1.973-.548,1.322-1.088,2.648-1.645,3.967a4.58,4.58,0,1,1-6.752-5.526,12.517,12.517,0,0,1,2.932-1.293,6.392,6.392,0,0,0,2.6-1.408,8,8,0,0,0,1.634-2.438.507.507,0,0,0-.043-.35c-1.1-2.665-2.208-5.325-3.3-7.991-.5-1.224-1-2.452-1.461-3.692a4,4,0,0,1-.235-1.813,2.438,2.438,0,0,1,.989-1.788c.4-.3.853-.528,1.317-.809l.823,1.981q2.921,7.042,5.848,14.083a7.637,7.637,0,0,0,2.107,3.083,6.382,6.382,0,0,0,2.121,1.083,13.5,13.5,0,0,1,3.027,1.295,4.539,4.539,0,0,1,2.017,5.115,4.586,4.586,0,0,1-8.7.406q-1.137-2.739-2.27-5.478C789.535,937.222,789.485,937.117,789.4,936.931Zm-6.755,6.99a2.748,2.748,0,1,0-2.725-2.809A2.751,2.751,0,0,0,782.648,943.921Zm13.5,0a2.748,2.748,0,1,0-2.76-2.746A2.75,2.75,0,0,0,796.148,943.923Zm-5.824-11.8a.916.916,0,1,0-1.832.007.916.916,0,0,0,1.832-.007Z" transform="translate(-778.092 -915.763)" fill="#151331"/>
      <path id="Path_100" data-name="Path 100" d="M802.466,915.877c2.572.945,3.333,2.537,3.014,4.515a8.89,8.89,0,0,1-.512,1.922c-1.43,3.531-2.894,7.05-4.347,10.571-.237.577-.479,1.152-.753,1.81-.383-.921-.732-1.763-1.081-2.6-.471-1.134-.949-2.264-1.405-3.4a.788.788,0,0,1-.008-.536q2.474-6.012,4.972-12.015C802.38,916.055,802.42,915.976,802.466,915.877Z" transform="translate(-786.61 -915.782)" fill="#151331"/>
    </g>
  </g>
</svg>
